…
This data is now joined to a geopackage of the LAEI grid exact cuts using the `cellid` identifier. Then the LAEI exact cuts are dissolved to create regular 1km by 1km grids n.b. this is not a spatial aggregate, actually the grid centroid coordinates are used to create the grids, and then linked. The data (`grid_emissions`) now looks like this:

```r
Simple feature collection with 933 features and 5 fields
geometry type:  POLYGON
dimension:      XY
bbox:           xmin: 523000 ymin: 174000 xmax: 558000 ymax: 187000
epsg (SRID):    27700
proj4string:    +proj=tmerc +lat_0=49 +lon_0=-2 +k=0.9996012717 +x_0=400000 +y_0=-100000 +ellps=airy +towgs84=446.448,-125.157,542.06,0.15,0.247,0.842,-20.489 +units=m +no_defs
# A tibble: 933 x 6
   pollutant group large_grid_id  sailing berth                                                                      geometry
   <chr>     <dbl>         <dbl>    <dbl> <dbl>                                                                 <POLYGON [m]>
 1 NOx           1          9559     0.17  0    ((548000 183000, 548000 182000, 547000 182000, 547000 183000, 548000 183000))
 2 NOx           1          9717     0.26  0    ((534000 182000, 534000 181000, 533000 181000, 533000 182000, 534000 182000))
 3 NOx           1          9728    20.9   0    ((545000 182000, 545000 181000, 544000 181000, 544000 182000, 545000 182000))
 4 NOx           1          9729    82.8   0.01 ((546000 182000, 546000 181000, 545000 181000, 545000 182000, 546000 182000))
 5 NOx           1          9730    62.9   0    ((547000 182000, 547000 181000, 546000 181000, 546000 182000, 547000 182000))
 6 NOx           1          9731    59.4   0    ((548000 182000, 548000 181000, 547000 181000, 547000 182000, 548000 182000))
 7 NOx           1          9732   108.    0    ((549000 182000, 549000 181000, 548000 181000, 548000 182000, 549000 182000))
 8 NOx           1          9733    45.4   0    ((550000 182000, 550000 181000, 549000 181000, 549000 182000, 550000 182000))
 9 NOx           1          9734     9.8   0    ((551000 182000, 551000 181000, 550000 181000, 550000 182000, 551000 182000))
10 NOx           1          9886 22179.   34.1  ((531000 181000, 531000 180000, 530000 180000, 530000 181000, 531000 181000))
# ... with 923 more rows
```
…
There are 1km by 1km emission grid areas from the PLA, with emissions for sailing/berth, where there is no GPS data.

```r

small_grid_result %>% 
      as_tibble() %>% 
      group_by(large_grid_id, pollutant, group) %>% 
      summarise(gps_count = sum(count, na.rm=T)) %>% 
      left_join(grid_emissions, ., by = c("large_grid_id" = "large_grid_id",
                                          "group"="group",
                                          "pollutant"="pollutant")) %>% 
      filter(gps_count == 0 & (sailing > 0 | berth > 0))

# A tibble: 62 x 6
   pollutant group large_grid_id sailing berth gps_count
   <chr>     <dbl>         <dbl>   <dbl> <dbl>     <int>
 1 NOx           1          9559   0.17   0            0
 2 NOx           1          9893   0.02   0            0
 3 NOx           1         10081   0.01   0            0
 4 NOx           2          9383   0.16   0            0
 5 NOx           2          9384   0.900  0            0
 6 NOx           2          9556   1.55   0            0
 7 NOx           2          9557   5.76   0.48         0
 8 NOx           2          9559   5.17  12.9          0
 9 NOx           2          9560   0.64   0            0
10 NOx           2          9717   0.01   0            0
# ... with 52 more rows
```
…
